ericMossotti.github.io - BikeShare
…
Files now in tempFiles:  

 tempFiles/part-0.parquet

# A tibble: 4,331,707 × 14
   ride_id          rideable_type started_at          ended_at           
   <chr>            <chr>         <dttm>              <dttm>             
 1 F96D5A74A3E41399 electric_bike 2023-01-21 20:05:42 2023-01-21 20:16:33
 2 13CB7EB698CEDB88 classic_bike  2023-01-10 15:37:36 2023-01-10 15:46:05
 3 BD88A2E670661CE5 electric_bike 2023-01-02 07:51:57 2023-01-02 08:05:11
 4 C90792D034FED968 classic_bike  2023-01-22 10:52:58 2023-01-22 11:01:44
 5 3397017529188E8A classic_bike  2023-01-12 13:58:01 2023-01-12 14:13:20
 6 58E68156DAE3E311 electric_bike 2023-01-31 07:18:03 2023-01-31 07:21:16
 7 2F7194B6012A98D4 electric_bike 2023-01-15 21:18:36 2023-01-15 21:32:36
 8 DB1CF84154D6A049 classic_bike  2023-01-25 10:49:01 2023-01-25 10:58:22
 9 34EAB943F88C4C5D electric_bike 2023-01-25 20:49:47 2023-01-25 21:02:14
10 BC8AB1AA51DA9115 classic_bike  2023-01-06 16:37:19 2023-01-06 16:49:52
# ℹ 4,331,697 more rows
# ℹ 10 more variables: start_station_name <chr>, start_station_id <chr>,
#   end_station_name <chr>, end_station_id <chr>, start_lat <dbl>,
#   start_lng <dbl>, end_lat <dbl>, end_lng <dbl>, member_casual <chr>,
#   trip_time <dbl>
…
